[gd_scene load_steps=3 format=2]

[ext_resource path="res://Assets/playerShip1_green.png" type="Texture" id=1]

[sub_resource type="RectangleShape2D" id=1]
extents = Vector2( 50.0055, 38.7128 )

[node name="BlueShip" type="RigidBody2D"]
position = Vector2( 1.94803, 0 )
mass = 5.17

[node name="Sprite" type="Sprite" parent="."]
position = Vector2( -1.948, 0 )
texture = ExtResource( 1 )

[node name="CollisionShape2D" type="CollisionShape2D" parent="."]
position = Vector2( -1.94797, 3.89602 )
shape = SubResource( 1 )
